Iter, Op, Cin, Xoperand, Yoperand, ExpectedResult, ExpectedCarry, ActualResult, ActualCarry, NumGood, NumBad
          0, 0, 0, 536, 960, 496, 1, 496, 1,           1,           0
          1, 0, 1, 396, 534, 931, 0, 931, 0,           2,           0
          2, 0, 1, 866, 881, 748, 1, 748, 1,           3,           0
          3, 1, 0, 162, 711, 451, 1, 451, 1,           4,           0
          4, 0, 1, 765, 047, 813, 0, 813, 0,           5,           0
          5, 1, 1, 278, 281, 996, 1, 996, 1,           6,           0
          6, 0, 0, 669, 059, 728, 0, 728, 0,           7,           0
          7, 0, 0, 751, 818, 569, 1, 569, 1,           8,           0
          8, 1, 0, 980, 222, 758, 0, 758, 0,           9,           0
          9, 0, 0, 343, 920, 263, 1, 263, 1,          10,           0
         10, 0, 1, 027, 145, 173, 0, 173, 0,          11,           0
         11, 1, 0, 911, 503, 408, 0, 408, 0,          12,           0
         12, 0, 0, 640, 262, 902, 0, 902, 0,          13,           0
         13, 1, 0, 099, 909, 190, 1, 190, 1,          14,           0
         14, 1, 0, 194, 346, 848, 1, 848, 1,          15,           0
         15, 1, 1, 911, 631, 279, 0, 279, 0,          16,           0
         16, 1, 1, 600, 293, 306, 0, 306, 0,          17,           0
         17, 1, 0, 108, 341, 767, 1, 767, 1,          18,           0
         18, 1, 0, 102, 048, 054, 0, 054, 0,          19,           0
         19, 1, 1, 091, 532, 558, 1, 558, 1,          20,           0
         20, 0, 0, 242, 611, 853, 0, 853, 0,          21,           0
         21, 0, 1, 742, 536, 279, 1, 279, 1,          22,           0
         22, 1, 1, 359, 961, 397, 1, 397, 1,          23,           0
         23, 1, 1, 630, 762, 867, 1, 867, 1,          24,           0
         24, 0, 1, 989, 561, 551, 1, 551, 1,          25,           0
         25, 0, 0, 650, 574, 224, 1, 224, 1,          26,           0
         26, 0, 1, 452, 594, 047, 1, 047, 1,          27,           0
         27, 1, 1, 020, 797, 222, 1, 222, 1,          28,           0
         28, 0, 1, 177, 487, 665, 0, 665, 0,          29,           0
         29, 0, 0, 904, 818, 722, 1, 722, 1,          30,           0
         30, 0, 0, 453, 423, 876, 0, 876, 0,          31,           0
         31, 1, 1, 477, 389, 087, 0, 087, 0,          32,           0
         32, 1, 0, 616, 925, 691, 1, 691, 1,          33,           0
         33, 1, 1, 156, 440, 715, 1, 715, 1,          34,           0
         34, 0, 0, 126, 297, 423, 0, 423, 0,          35,           0
         35, 1, 0, 382, 386, 996, 1, 996, 1,          36,           0
         36, 1, 1, 570, 036, 533, 0, 533, 0,          37,           0
         37, 1, 0, 298, 142, 156, 0, 156, 0,          38,           0
         38, 1, 0, 639, 390, 249, 0, 249, 0,          39,           0
         39, 1, 1, 324, 588, 735, 1, 735, 1,          40,           0
         40, 1, 1, 191, 890, 300, 1, 300, 1,          41,           0
         41, 1, 0, 418, 326, 092, 0, 092, 0,          42,           0
         42, 1, 0, 372, 136, 236, 0, 236, 0,          43,           0
         43, 1, 0, 854, 521, 333, 0, 333, 0,          44,           0
         44, 0, 1, 265, 587, 853, 0, 853, 0,          45,           0
         45, 0, 0, 366, 167, 533, 0, 533, 0,          46,           0
         46, 0, 1, 577, 150, 728, 0, 728, 0,          47,           0
         47, 1, 1, 229, 789, 439, 1, 439, 1,          48,           0
         48, 0, 0, 710, 708, 418, 1, 418, 1,          49,           0
         49, 0, 1, 590, 632, 223, 1, 223, 1,          50,           0
         50, 1, 0, 230, 624, 606, 1, 606, 1,          51,           0
         51, 1, 1, 551, 112, 438, 0, 438, 0,          52,           0
         52, 1, 1, 896, 741, 154, 0, 154, 0,          53,           0
         53, 0, 0, 835, 083, 918, 0, 918, 0,          54,           0
         54, 1, 1, 542, 013, 528, 0, 528, 0,          55,           0
         55, 0, 0, 634, 379, 013, 1, 013, 1,          56,           0
         56, 0, 1, 994, 181, 176, 1, 176, 1,          57,           0
         57, 0, 0, 053, 592, 645, 0, 645, 0,          58,           0
         58, 1, 0, 291, 525, 766, 1, 766, 1,          59,           0
         59, 1, 1, 733, 925, 807, 1, 807, 1,          60,           0
         60, 0, 0, 488, 102, 590, 0, 590, 0,          61,           0
         61, 1, 0, 895, 112, 783, 0, 783, 0,          62,           0
         62, 0, 1, 112, 016, 129, 0, 129, 0,          63,           0
         63, 1, 1, 962, 100, 861, 0, 861, 0,          64,           0
         64, 0, 1, 511, 412, 924, 0, 924, 0,          65,           0
         65, 0, 1, 607, 715, 323, 1, 323, 1,          66,           0
         66, 0, 0, 317, 331, 648, 0, 648, 0,          67,           0
         67, 0, 1, 411, 400, 812, 0, 812, 0,          68,           0
         68, 0, 1, 802, 402, 205, 1, 205, 1,          69,           0
         69, 1, 1, 834, 675, 158, 0, 158, 0,          70,           0
         70, 1, 0, 223, 892, 331, 1, 331, 1,          71,           0
         71, 0, 0, 500, 324, 824, 0, 824, 0,          72,           0
         72, 0, 1, 481, 852, 334, 1, 334, 1,          73,           0
         73, 1, 1, 270, 103, 166, 0, 166, 0,          74,           0
         74, 0, 0, 951, 887, 838, 1, 838, 1,          75,           0
         75, 0, 1, 041, 498, 540, 0, 540, 0,          76,           0
         76, 0, 0, 142, 809, 951, 0, 951, 0,          77,           0
         77, 1, 0, 438, 379, 059, 0, 059, 0,          78,           0
         78, 0, 0, 021, 302, 323, 0, 323, 0,          79,           0
         79, 1, 1, 600, 502, 097, 0, 097, 0,          80,           0
         80, 1, 1, 494, 467, 026, 0, 026, 0,          81,           0
         81, 1, 1, 626, 925, 700, 1, 700, 1,          82,           0
         82, 1, 1, 600, 190, 409, 0, 409, 0,          83,           0
         83, 0, 0, 595, 362, 957, 0, 957, 0,          84,           0
         84, 1, 1, 068, 518, 549, 1, 549, 1,          85,           0
         85, 1, 1, 059, 840, 218, 1, 218, 1,          86,           0
         86, 0, 1, 354, 532, 887, 0, 887, 0,          87,           0
         87, 1, 1, 619, 211, 407, 0, 407, 0,          88,           0
         88, 0, 0, 588, 179, 767, 0, 767, 0,          89,           0
         89, 1, 1, 367, 583, 783, 1, 783, 1,          90,           0
         90, 0, 0, 783, 226, 009, 1, 009, 1,          91,           0
         91, 0, 1, 522, 472, 995, 0, 995, 0,          92,           0
         92, 0, 1, 907, 080, 988, 0, 988, 0,          93,           0
         93, 1, 0, 343, 724, 619, 1, 619, 1,          94,           0
         94, 1, 0, 814, 402, 412, 0, 412, 0,          95,           0
         95, 1, 1, 966, 805, 160, 0, 160, 0,          96,           0
         96, 0, 0, 307, 399, 706, 0, 706, 0,          97,           0
         97, 1, 0, 189, 861, 328, 1, 328, 1,          98,           0
         98, 0, 1, 871, 598, 470, 1, 470, 1,          99,           0
         99, 0, 0, 219, 082, 301, 0, 301, 0,         100,           0
        100, 0, 0, 254, 871, 125, 1, 125, 1,         101,           0
        101, 1, 0, 871, 018, 853, 0, 853, 0,         102,           0
        102, 1, 0, 610, 533, 077, 0, 077, 0,         103,           0
        103, 1, 1, 183, 433, 749, 1, 749, 1,         104,           0
        104, 0, 1, 694, 362, 057, 1, 057, 1,         105,           0
        105, 1, 0, 207, 803, 404, 1, 404, 1,         106,           0
        106, 1, 1, 417, 246, 170, 0, 170, 0,         107,           0
        107, 0, 1, 572, 339, 912, 0, 912, 0,         108,           0
        108, 0, 0, 223, 180, 403, 0, 403, 0,         109,           0
        109, 1, 0, 163, 403, 760, 1, 760, 1,         110,           0
        110, 1, 1, 108, 349, 758, 1, 758, 1,         111,           0
        111, 1, 1, 190, 563, 626, 1, 626, 1,         112,           0
        112, 1, 0, 499, 954, 545, 1, 545, 1,         113,           0
        113, 1, 1, 302, 677, 624, 1, 624, 1,         114,           0
        114, 1, 1, 166, 954, 211, 1, 211, 1,         115,           0
        115, 0, 0, 843, 565, 408, 1, 408, 1,         116,           0
        116, 0, 1, 459, 946, 406, 1, 406, 1,         117,           0
        117, 1, 0, 493, 377, 116, 0, 116, 0,         118,           0
        118, 0, 1, 927, 071, 999, 0, 999, 0,         119,           0
        119, 0, 0, 287, 381, 668, 0, 668, 0,         120,           0
        120, 0, 0, 461, 537, 998, 0, 998, 0,         121,           0
        121, 1, 1, 988, 381, 606, 0, 606, 0,         122,           0
        122, 1, 1, 748, 695, 052, 0, 052, 0,         123,           0
        123, 0, 0, 463, 755, 218, 1, 218, 1,         124,           0
        124, 1, 1, 684, 163, 520, 0, 520, 0,         125,           0
        125, 0, 0, 498, 483, 981, 0, 981, 0,         126,           0
        126, 0, 1, 711, 600, 312, 1, 312, 1,         127,           0
        127, 1, 1, 653, 685, 967, 1, 967, 1,         128,           0
        128, 1, 1, 229, 344, 884, 1, 884, 1,         129,           0
        129, 1, 0, 193, 312, 881, 1, 881, 1,         130,           0
        130, 0, 1, 267, 230, 498, 0, 498, 0,         131,           0
        131, 1, 0, 653, 016, 637, 0, 637, 0,         132,           0
        132, 1, 0, 868, 543, 325, 0, 325, 0,         133,           0
        133, 1, 1, 293, 597, 695, 1, 695, 1,         134,           0
        134, 0, 0, 826, 204, 030, 1, 030, 1,         135,           0
        135, 0, 0, 827, 481, 308, 1, 308, 1,         136,           0
        136, 0, 1, 291, 946, 238, 1, 238, 1,         137,           0
        137, 0, 0, 560, 084, 644, 0, 644, 0,         138,           0
        138, 0, 1, 064, 397, 462, 0, 462, 0,         139,           0
        139, 1, 1, 439, 626, 812, 1, 812, 1,         140,           0
        140, 0, 1, 636, 724, 361, 1, 361, 1,         141,           0
        141, 0, 0, 638, 483, 121, 1, 121, 1,         142,           0
        142, 1, 0, 085, 799, 286, 1, 286, 1,         143,           0
        143, 1, 0, 469, 249, 220, 0, 220, 0,         144,           0
        144, 0, 0, 587, 339, 926, 0, 926, 0,         145,           0
        145, 0, 0, 795, 784, 579, 1, 579, 1,         146,           0
        146, 1, 0, 976, 836, 140, 0, 140, 0,         147,           0
        147, 1, 1, 441, 103, 337, 0, 337, 0,         148,           0
        148, 1, 1, 941, 535, 405, 0, 405, 0,         149,           0
        149, 1, 1, 294, 216, 077, 0, 077, 0,         150,           0
        150, 1, 1, 379, 794, 584, 1, 584, 1,         151,           0
        151, 1, 1, 046, 994, 051, 1, 051, 1,         152,           0
        152, 1, 0, 274, 243, 031, 0, 031, 0,         153,           0
        153, 1, 0, 371, 161, 210, 0, 210, 0,         154,           0
        154, 0, 1, 277, 927, 205, 1, 205, 1,         155,           0
        155, 0, 0, 092, 688, 780, 0, 780, 0,         156,           0
        156, 1, 0, 483, 525, 958, 1, 958, 1,         157,           0
        157, 1, 0, 921, 811, 110, 0, 110, 0,         158,           0
        158, 0, 0, 659, 637, 296, 1, 296, 1,         159,           0
        159, 1, 1, 747, 252, 494, 0, 494, 0,         160,           0
        160, 0, 1, 524, 407, 932, 0, 932, 0,         161,           0
        161, 0, 0, 491, 861, 352, 1, 352, 1,         162,           0
        162, 1, 0, 545, 886, 659, 1, 659, 1,         163,           0
        163, 0, 1, 941, 092, 034, 1, 034, 1,         164,           0
        164, 0, 0, 820, 112, 932, 0, 932, 0,         165,           0
        165, 0, 0, 311, 546, 857, 0, 857, 0,         166,           0
        166, 0, 0, 073, 148, 221, 0, 221, 0,         167,           0
        167, 0, 1, 004, 753, 758, 0, 758, 0,         168,           0
        168, 0, 0, 463, 958, 421, 1, 421, 1,         169,           0
        169, 0, 1, 331, 668, 000, 1, 000, 1,         170,           0
        170, 1, 0, 987, 541, 446, 0, 446, 0,         171,           0
        171, 1, 0, 622, 591, 031, 0, 031, 0,         172,           0
        172, 0, 0, 915, 423, 338, 1, 338, 1,         173,           0
        173, 1, 1, 767, 159, 607, 0, 607, 0,         174,           0
        174, 0, 1, 325, 987, 313, 1, 313, 1,         175,           0
        175, 1, 0, 159, 842, 317, 1, 317, 1,         176,           0
        176, 1, 1, 869, 248, 620, 0, 620, 0,         177,           0
        177, 1, 0, 871, 264, 607, 0, 607, 0,         178,           0
        178, 1, 0, 470, 059, 411, 0, 411, 0,         179,           0
        179, 1, 0, 823, 411, 412, 0, 412, 0,         180,           0
        180, 0, 0, 943, 126, 069, 1, 069, 1,         181,           0
        181, 1, 1, 094, 477, 616, 1, 616, 1,         182,           0
        182, 1, 1, 525, 208, 316, 0, 316, 0,         183,           0
        183, 1, 0, 064, 682, 382, 1, 382, 1,         184,           0
        184, 1, 0, 242, 021, 221, 0, 221, 0,         185,           0
        185, 0, 1, 870, 762, 633, 1, 633, 1,         186,           0
        186, 1, 0, 438, 792, 646, 1, 646, 1,         187,           0
        187, 1, 0, 185, 559, 626, 1, 626, 1,         188,           0
        188, 1, 1, 761, 067, 693, 0, 693, 0,         189,           0
        189, 0, 0, 113, 689, 802, 0, 802, 0,         190,           0
        190, 1, 1, 952, 167, 784, 0, 784, 0,         191,           0
        191, 1, 1, 692, 999, 692, 1, 692, 1,         192,           0
        192, 0, 0, 010, 794, 804, 0, 804, 0,         193,           0
        193, 1, 1, 367, 381, 985, 1, 985, 1,         194,           0
        194, 1, 0, 139, 582, 557, 1, 557, 1,         195,           0
        195, 0, 0, 789, 636, 425, 1, 425, 1,         196,           0
        196, 1, 0, 532, 944, 588, 1, 588, 1,         197,           0
        197, 0, 0, 732, 481, 213, 1, 213, 1,         198,           0
        198, 1, 0, 485, 085, 400, 0, 400, 0,         199,           0
        199, 1, 0, 432, 624, 808, 1, 808, 1,         200,           0
        200, 1, 0, 538, 694, 844, 1, 844, 1,         201,           0
        201, 0, 1, 592, 669, 262, 1, 262, 1,         202,           0
        202, 1, 0, 718, 494, 224, 0, 224, 0,         203,           0
        203, 0, 0, 995, 856, 851, 1, 851, 1,         204,           0
        204, 1, 1, 057, 381, 675, 1, 675, 1,         205,           0
        205, 0, 1, 755, 377, 133, 1, 133, 1,         206,           0
        206, 1, 0, 004, 398, 606, 1, 606, 1,         207,           0
        207, 1, 0, 006, 263, 743, 1, 743, 1,         208,           0
        208, 1, 0, 546, 189, 357, 0, 357, 0,         209,           0
        209, 0, 1, 623, 975, 599, 1, 599, 1,         210,           0
        210, 1, 1, 648, 909, 738, 1, 738, 1,         211,           0
        211, 0, 0, 359, 471, 830, 0, 830, 0,         212,           0
        212, 1, 0, 737, 454, 283, 0, 283, 0,         213,           0
        213, 1, 0, 016, 926, 090, 1, 090, 1,         214,           0
        214, 1, 1, 554, 567, 986, 1, 986, 1,         215,           0
        215, 0, 1, 201, 170, 372, 0, 372, 0,         216,           0
        216, 1, 1, 805, 493, 311, 0, 311, 0,         217,           0
        217, 0, 1, 863, 182, 046, 1, 046, 1,         218,           0
        218, 1, 0, 751, 873, 878, 1, 878, 1,         219,           0
        219, 1, 1, 494, 094, 399, 0, 399, 0,         220,           0
        220, 1, 0, 466, 162, 304, 0, 304, 0,         221,           0
        221, 1, 0, 008, 123, 885, 1, 885, 1,         222,           0
        222, 1, 0, 474, 515, 959, 1, 959, 1,         223,           0
        223, 1, 1, 904, 397, 506, 0, 506, 0,         224,           0
        224, 1, 1, 352, 253, 098, 0, 098, 0,         225,           0
        225, 1, 1, 356, 812, 543, 1, 543, 1,         226,           0
        226, 1, 1, 249, 166, 082, 0, 082, 0,         227,           0
        227, 1, 0, 203, 007, 196, 0, 196, 0,         228,           0
        228, 0, 1, 925, 777, 703, 1, 703, 1,         229,           0
        229, 0, 1, 376, 738, 115, 1, 115, 1,         230,           0
        230, 1, 0, 879, 964, 915, 1, 915, 1,         231,           0
        231, 0, 0, 251, 698, 949, 0, 949, 0,         232,           0
        232, 1, 0, 973, 602, 371, 0, 371, 0,         233,           0
        233, 1, 0, 696, 611, 085, 0, 085, 0,         234,           0
        234, 0, 1, 317, 473, 791, 0, 791, 0,         235,           0
        235, 0, 1, 358, 766, 125, 1, 125, 1,         236,           0
        236, 1, 1, 136, 466, 669, 1, 669, 1,         237,           0
        237, 1, 1, 228, 725, 502, 1, 502, 1,         238,           0
        238, 1, 1, 944, 378, 565, 0, 565, 0,         239,           0
        239, 1, 0, 138, 563, 575, 1, 575, 1,         240,           0
        240, 0, 1, 194, 754, 949, 0, 949, 0,         241,           0
        241, 0, 1, 185, 882, 068, 1, 068, 1,         242,           0
        242, 1, 1, 929, 121, 807, 0, 807, 0,         243,           0
        243, 0, 1, 719, 635, 355, 1, 355, 1,         244,           0
        244, 0, 0, 203, 025, 228, 0, 228, 0,         245,           0
        245, 0, 1, 412, 382, 795, 0, 795, 0,         246,           0
        246, 0, 1, 358, 822, 181, 1, 181, 1,         247,           0
        247, 1, 1, 647, 767, 879, 1, 879, 1,         248,           0
        248, 0, 1, 819, 497, 317, 1, 317, 1,         249,           0
        249, 0, 0, 641, 483, 124, 1, 124, 1,         250,           0
        250, 0, 1, 160, 202, 363, 0, 363, 0,         251,           0
        251, 0, 1, 837, 168, 006, 1, 006, 1,         252,           0
        252, 1, 0, 895, 868, 027, 0, 027, 0,         253,           0
        253, 1, 0, 597, 193, 404, 0, 404, 0,         254,           0
        254, 0, 1, 717, 957, 675, 1, 675, 1,         255,           0
        255, 1, 0, 023, 770, 253, 1, 253, 1,         256,           0
        256, 0, 0, 357, 806, 163, 1, 163, 1,         257,           0
        257, 0, 0, 436, 100, 536, 0, 536, 0,         258,           0
        258, 1, 1, 125, 675, 449, 1, 449, 1,         259,           0
        259, 1, 1, 261, 089, 171, 0, 171, 0,         260,           0
        260, 1, 1, 579, 439, 139, 0, 139, 0,         261,           0
        261, 0, 0, 774, 350, 124, 1, 124, 1,         262,           0
        262, 0, 0, 852, 653, 505, 1, 505, 1,         263,           0
        263, 1, 1, 619, 766, 852, 1, 852, 1,         264,           0
        264, 1, 0, 565, 467, 098, 0, 098, 0,         265,           0
        265, 1, 1, 621, 211, 409, 0, 409, 0,         266,           0
        266, 1, 0, 680, 560, 120, 0, 120, 0,         267,           0
        267, 1, 1, 469, 579, 889, 1, 889, 1,         268,           0
        268, 1, 0, 355, 560, 795, 1, 795, 1,         269,           0
        269, 1, 1, 171, 479, 691, 1, 691, 1,         270,           0
        270, 0, 0, 049, 146, 195, 0, 195, 0,         271,           0
        271, 0, 0, 054, 332, 386, 0, 386, 0,         272,           0
        272, 1, 1, 090, 673, 416, 1, 416, 1,         273,           0
        273, 1, 1, 653, 378, 274, 0, 274, 0,         274,           0
        274, 1, 0, 593, 683, 910, 1, 910, 1,         275,           0
        275, 1, 0, 257, 825, 432, 1, 432, 1,         276,           0
        276, 0, 0, 499, 841, 340, 1, 340, 1,         277,           0
        277, 0, 0, 971, 477, 448, 1, 448, 1,         278,           0
        278, 0, 1, 109, 764, 874, 0, 874, 0,         279,           0
        279, 0, 0, 118, 671, 789, 0, 789, 0,         280,           0
        280, 0, 1, 322, 581, 904, 0, 904, 0,         281,           0
        281, 1, 0, 536, 263, 273, 0, 273, 0,         282,           0
        282, 1, 1, 007, 355, 651, 1, 651, 1,         283,           0
        283, 0, 0, 384, 161, 545, 0, 545, 0,         284,           0
        284, 0, 1, 158, 047, 206, 0, 206, 0,         285,           0
        285, 0, 1, 646, 071, 718, 0, 718, 0,         286,           0
        286, 0, 0, 436, 180, 616, 0, 616, 0,         287,           0
        287, 1, 0, 391, 097, 294, 0, 294, 0,         288,           0
        288, 0, 0, 067, 147, 214, 0, 214, 0,         289,           0
        289, 1, 0, 766, 157, 609, 0, 609, 0,         290,           0
        290, 1, 1, 799, 419, 379, 0, 379, 0,         291,           0
        291, 0, 1, 899, 115, 015, 1, 015, 1,         292,           0
        292, 1, 1, 563, 084, 478, 0, 478, 0,         293,           0
        293, 0, 1, 314, 079, 394, 0, 394, 0,         294,           0
        294, 0, 0, 824, 371, 195, 1, 195, 1,         295,           0
        295, 0, 0, 874, 805, 679, 1, 679, 1,         296,           0
        296, 0, 1, 576, 279, 856, 0, 856, 0,         297,           0
        297, 1, 1, 826, 858, 967, 1, 967, 1,         298,           0
        298, 0, 0, 225, 790, 015, 1, 015, 1,         299,           0
        299, 1, 1, 170, 250, 919, 1, 919, 1,         300,           0
        300, 1, 1, 476, 943, 532, 1, 532, 1,         301,           0
        301, 0, 1, 203, 650, 854, 0, 854, 0,         302,           0
        302, 0, 1, 303, 974, 278, 1, 278, 1,         303,           0
        303, 0, 0, 969, 031, 000, 1, 000, 1,         304,           0
        304, 1, 0, 395, 340, 055, 0, 055, 0,         305,           0
        305, 0, 0, 498, 161, 659, 0, 659, 0,         306,           0
        306, 1, 0, 881, 421, 460, 0, 460, 0,         307,           0
        307, 0, 0, 693, 644, 337, 1, 337, 1,         308,           0
        308, 1, 1, 628, 412, 215, 0, 215, 0,         309,           0
        309, 0, 1, 931, 912, 844, 1, 844, 1,         310,           0
        310, 1, 1, 997, 487, 509, 0, 509, 0,         311,           0
        311, 1, 1, 553, 959, 593, 1, 593, 1,         312,           0
        312, 0, 1, 903, 361, 265, 1, 265, 1,         313,           0
        313, 1, 1, 355, 028, 326, 0, 326, 0,         314,           0
        314, 0, 0, 654, 529, 183, 1, 183, 1,         315,           0
        315, 1, 0, 131, 096, 035, 0, 035, 0,         316,           0
        316, 0, 0, 279, 129, 408, 0, 408, 0,         317,           0
        317, 1, 1, 598, 261, 336, 0, 336, 0,         318,           0
        318, 1, 1, 988, 714, 273, 0, 273, 0,         319,           0
        319, 1, 0, 060, 813, 247, 1, 247, 1,         320,           0
        320, 1, 1, 787, 416, 370, 0, 370, 0,         321,           0
        321, 1, 0, 920, 269, 651, 0, 651, 0,         322,           0
        322, 1, 0, 293, 737, 556, 1, 556, 1,         323,           0
        323, 0, 0, 193, 375, 568, 0, 568, 0,         324,           0
        324, 0, 1, 057, 490, 548, 0, 548, 0,         325,           0
        325, 1, 0, 781, 424, 357, 0, 357, 0,         326,           0
        326, 0, 0, 013, 452, 465, 0, 465, 0,         327,           0
        327, 1, 1, 032, 297, 734, 1, 734, 1,         328,           0
        328, 0, 1, 335, 571, 907, 0, 907, 0,         329,           0
        329, 1, 0, 717, 250, 467, 0, 467, 0,         330,           0
        330, 1, 1, 542, 021, 520, 0, 520, 0,         331,           0
        331, 1, 0, 977, 185, 792, 0, 792, 0,         332,           0
        332, 1, 0, 703, 041, 662, 0, 662, 0,         333,           0
        333, 1, 1, 310, 544, 765, 1, 765, 1,         334,           0
        334, 1, 0, 684, 303, 381, 0, 381, 0,         335,           0
        335, 0, 0, 411, 093, 504, 0, 504, 0,         336,           0
        336, 0, 1, 689, 263, 953, 0, 953, 0,         337,           0
        337, 0, 0, 542, 251, 793, 0, 793, 0,         338,           0
        338, 1, 1, 481, 316, 164, 0, 164, 0,         339,           0
        339, 0, 1, 387, 292, 680, 0, 680, 0,         340,           0
        340, 0, 1, 444, 908, 353, 1, 353, 1,         341,           0
        341, 0, 0, 115, 557, 672, 0, 672, 0,         342,           0
        342, 1, 1, 383, 772, 610, 1, 610, 1,         343,           0
        343, 0, 0, 119, 904, 023, 1, 023, 1,         344,           0
        344, 1, 0, 313, 399, 914, 1, 914, 1,         345,           0
        345, 1, 0, 138, 484, 654, 1, 654, 1,         346,           0
        346, 1, 0, 553, 962, 591, 1, 591, 1,         347,           0
        347, 1, 0, 234, 787, 447, 1, 447, 1,         348,           0
        348, 0, 1, 598, 262, 861, 0, 861, 0,         349,           0
        349, 0, 1, 629, 899, 529, 1, 529, 1,         350,           0
        350, 0, 0, 265, 744, 009, 1, 009, 1,         351,           0
        351, 1, 0, 512, 396, 116, 0, 116, 0,         352,           0
        352, 0, 0, 242, 754, 996, 0, 996, 0,         353,           0
        353, 0, 1, 813, 356, 170, 1, 170, 1,         354,           0
        354, 1, 0, 025, 035, 990, 1, 990, 1,         355,           0
        355, 1, 1, 119, 395, 723, 1, 723, 1,         356,           0
        356, 1, 0, 633, 647, 986, 1, 986, 1,         357,           0
        357, 1, 1, 121, 161, 959, 1, 959, 1,         358,           0
        358, 1, 0, 843, 777, 066, 0, 066, 0,         359,           0
        359, 0, 0, 265, 981, 246, 1, 246, 1,         360,           0
        360, 0, 1, 849, 723, 573, 1, 573, 1,         361,           0
        361, 0, 1, 150, 431, 582, 0, 582, 0,         362,           0
        362, 0, 1, 595, 008, 604, 0, 604, 0,         363,           0
        363, 0, 0, 020, 470, 490, 0, 490, 0,         364,           0
        364, 1, 0, 626, 988, 638, 1, 638, 1,         365,           0
        365, 0, 1, 453, 702, 156, 1, 156, 1,         366,           0
        366, 1, 1, 367, 555, 811, 1, 811, 1,         367,           0
        367, 0, 0, 126, 672, 798, 0, 798, 0,         368,           0
        368, 1, 0, 945, 417, 528, 0, 528, 0,         369,           0
        369, 1, 0, 898, 564, 334, 0, 334, 0,         370,           0
        370, 0, 1, 957, 934, 892, 1, 892, 1,         371,           0
        371, 1, 0, 947, 094, 853, 0, 853, 0,         372,           0
        372, 1, 1, 118, 999, 118, 1, 118, 1,         373,           0
        373, 0, 1, 518, 200, 719, 0, 719, 0,         374,           0
        374, 0, 1, 774, 697, 472, 1, 472, 1,         375,           0
        375, 1, 1, 316, 094, 221, 0, 221, 0,         376,           0
        376, 1, 0, 582, 843, 739, 1, 739, 1,         377,           0
        377, 1, 0, 682, 638, 044, 0, 044, 0,         378,           0
        378, 0, 1, 322, 619, 942, 0, 942, 0,         379,           0
        379, 0, 1, 901, 068, 970, 0, 970, 0,         380,           0
        380, 0, 1, 979, 368, 348, 1, 348, 1,         381,           0
        381, 1, 1, 180, 311, 868, 1, 868, 1,         382,           0
        382, 0, 1, 187, 141, 329, 0, 329, 0,         383,           0
        383, 1, 0, 665, 589, 076, 0, 076, 0,         384,           0
        384, 0, 1, 434, 755, 190, 1, 190, 1,         385,           0
        385, 1, 1, 311, 263, 047, 0, 047, 0,         386,           0
        386, 1, 1, 303, 809, 493, 1, 493, 1,         387,           0
        387, 1, 1, 849, 743, 105, 0, 105, 0,         388,           0
        388, 0, 0, 607, 078, 685, 0, 685, 0,         389,           0
        389, 1, 0, 225, 204, 021, 0, 021, 0,         390,           0
        390, 1, 0, 654, 867, 787, 1, 787, 1,         391,           0
        391, 1, 1, 207, 036, 170, 0, 170, 0,         392,           0
        392, 1, 1, 452, 147, 304, 0, 304, 0,         393,           0
        393, 0, 1, 726, 613, 340, 1, 340, 1,         394,           0
        394, 1, 0, 676, 555, 121, 0, 121, 0,         395,           0
        395, 0, 0, 451, 731, 182, 1, 182, 1,         396,           0
        396, 0, 1, 482, 628, 111, 1, 111, 1,         397,           0
        397, 1, 1, 662, 118, 543, 0, 543, 0,         398,           0
        398, 0, 0, 469, 599, 068, 1, 068, 1,         399,           0
        399, 0, 1, 378, 913, 292, 1, 292, 1,         400,           0
        400, 1, 0, 922, 338, 584, 0, 584, 0,         401,           0
        401, 0, 1, 674, 610, 285, 1, 285, 1,         402,           0
        402, 0, 0, 353, 870, 223, 1, 223, 1,         403,           0
        403, 1, 0, 105, 318, 787, 1, 787, 1,         404,           0
        404, 0, 1, 380, 121, 502, 0, 502, 0,         405,           0
        405, 1, 0, 312, 065, 247, 0, 247, 0,         406,           0
        406, 0, 1, 180, 979, 160, 1, 160, 1,         407,           0
        407, 0, 0, 798, 206, 004, 1, 004, 1,         408,           0
        408, 1, 0, 673, 269, 404, 0, 404, 0,         409,           0
        409, 0, 1, 085, 039, 125, 0, 125, 0,         410,           0
        410, 1, 1, 629, 040, 588, 0, 588, 0,         411,           0
        411, 0, 1, 312, 917, 230, 1, 230, 1,         412,           0
        412, 0, 0, 005, 363, 368, 0, 368, 0,         413,           0
        413, 1, 1, 370, 761, 608, 1, 608, 1,         414,           0
        414, 1, 0, 206, 999, 207, 1, 207, 1,         415,           0
        415, 1, 0, 643, 705, 938, 1, 938, 1,         416,           0
        416, 1, 1, 738, 086, 651, 0, 651, 0,         417,           0
        417, 0, 1, 347, 751, 099, 1, 099, 1,         418,           0
        418, 1, 1, 196, 102, 093, 0, 093, 0,         419,           0
        419, 0, 0, 489, 788, 277, 1, 277, 1,         420,           0
        420, 1, 0, 596, 984, 612, 1, 612, 1,         421,           0
        421, 1, 1, 868, 897, 970, 1, 970, 1,         422,           0
        422, 0, 0, 824, 126, 950, 0, 950, 0,         423,           0
        423, 0, 0, 226, 002, 228, 0, 228, 0,         424,           0
        424, 1, 0, 853, 997, 856, 1, 856, 1,         425,           0
        425, 0, 0, 483, 395, 878, 0, 878, 0,         426,           0
        426, 0, 0, 263, 740, 003, 1, 003, 1,         427,           0
        427, 1, 1, 542, 247, 294, 0, 294, 0,         428,           0
        428, 0, 0, 365, 486, 851, 0, 851, 0,         429,           0
        429, 1, 0, 592, 280, 312, 0, 312, 0,         430,           0
        430, 1, 1, 782, 726, 055, 0, 055, 0,         431,           0
        431, 0, 1, 439, 993, 433, 1, 433, 1,         432,           0
        432, 0, 1, 496, 863, 360, 1, 360, 1,         433,           0
        433, 0, 1, 581, 787, 369, 1, 369, 1,         434,           0
        434, 0, 0, 249, 456, 705, 0, 705, 0,         435,           0
        435, 0, 1, 217, 500, 718, 0, 718, 0,         436,           0
        436, 1, 0, 114, 536, 578, 1, 578, 1,         437,           0
        437, 1, 1, 958, 594, 363, 0, 363, 0,         438,           0
        438, 0, 1, 357, 836, 194, 1, 194, 1,         439,           0
        439, 1, 1, 589, 557, 031, 0, 031, 0,         440,           0
        440, 0, 0, 275, 433, 708, 0, 708, 0,         441,           0
        441, 0, 0, 090, 095, 185, 0, 185, 0,         442,           0
        442, 0, 0, 601, 153, 754, 0, 754, 0,         443,           0
        443, 1, 1, 457, 025, 431, 0, 431, 0,         444,           0
        444, 0, 1, 528, 803, 332, 1, 332, 1,         445,           0
        445, 0, 1, 005, 857, 863, 0, 863, 0,         446,           0
        446, 1, 1, 147, 947, 199, 1, 199, 1,         447,           0
        447, 1, 0, 714, 802, 912, 1, 912, 1,         448,           0
        448, 0, 0, 053, 141, 194, 0, 194, 0,         449,           0
        449, 0, 0, 493, 402, 895, 0, 895, 0,         450,           0
        450, 1, 0, 280, 124, 156, 0, 156, 0,         451,           0
        451, 0, 1, 821, 126, 948, 0, 948, 0,         452,           0
        452, 1, 0, 300, 153, 147, 0, 147, 0,         453,           0
        453, 1, 1, 640, 310, 329, 0, 329, 0,         454,           0
        454, 0, 0, 316, 809, 125, 1, 125, 1,         455,           0
        455, 1, 1, 582, 958, 623, 1, 623, 1,         456,           0
        456, 1, 0, 803, 293, 510, 0, 510, 0,         457,           0
        457, 1, 0, 022, 914, 108, 1, 108, 1,         458,           0
        458, 1, 1, 765, 482, 282, 0, 282, 0,         459,           0
        459, 1, 1, 423, 108, 314, 0, 314, 0,         460,           0
        460, 0, 1, 804, 945, 750, 1, 750, 1,         461,           0
        461, 0, 0, 827, 442, 269, 1, 269, 1,         462,           0
        462, 1, 0, 062, 176, 886, 1, 886, 1,         463,           0
        463, 0, 1, 589, 374, 964, 0, 964, 0,         464,           0
        464, 1, 0, 116, 960, 156, 1, 156, 1,         465,           0
        465, 1, 0, 267, 488, 779, 1, 779, 1,         466,           0
        466, 0, 1, 427, 522, 950, 0, 950, 0,         467,           0
        467, 0, 1, 275, 948, 224, 1, 224, 1,         468,           0
        468, 1, 0, 862, 828, 034, 0, 034, 0,         469,           0
        469, 1, 1, 216, 451, 764, 1, 764, 1,         470,           0
        470, 1, 1, 501, 527, 973, 1, 973, 1,         471,           0
        471, 0, 1, 303, 047, 351, 0, 351, 0,         472,           0
        472, 0, 1, 440, 057, 498, 0, 498, 0,         473,           0
        473, 0, 0, 513, 616, 129, 1, 129, 1,         474,           0
        474, 1, 0, 798, 771, 027, 0, 027, 0,         475,           0
        475, 1, 0, 628, 502, 126, 0, 126, 0,         476,           0
        476, 1, 0, 887, 966, 921, 1, 921, 1,         477,           0
        477, 1, 1, 958, 479, 478, 0, 478, 0,         478,           0
        478, 0, 0, 063, 196, 259, 0, 259, 0,         479,           0
        479, 1, 0, 884, 265, 619, 0, 619, 0,         480,           0
        480, 0, 1, 585, 796, 382, 1, 382, 1,         481,           0
        481, 1, 0, 915, 948, 967, 1, 967, 1,         482,           0
        482, 1, 0, 446, 246, 200, 0, 200, 0,         483,           0
        483, 1, 1, 915, 114, 800, 0, 800, 0,         484,           0
        484, 0, 1, 132, 947, 080, 1, 080, 1,         485,           0
        485, 0, 0, 408, 545, 953, 0, 953, 0,         486,           0
        486, 1, 0, 743, 560, 183, 0, 183, 0,         487,           0
        487, 0, 1, 767, 223, 991, 0, 991, 0,         488,           0
        488, 0, 0, 558, 249, 807, 0, 807, 0,         489,           0
        489, 1, 1, 059, 944, 114, 1, 114, 1,         490,           0
        490, 0, 1, 518, 491, 010, 1, 010, 1,         491,           0
        491, 0, 1, 474, 131, 606, 0, 606, 0,         492,           0
        492, 0, 0, 439, 029, 468, 0, 468, 0,         493,           0
        493, 1, 0, 736, 174, 562, 0, 562, 0,         494,           0
        494, 0, 1, 981, 148, 130, 1, 130, 1,         495,           0
        495, 0, 1, 276, 299, 576, 0, 576, 0,         496,           0
        496, 1, 1, 679, 319, 359, 0, 359, 0,         497,           0
        497, 0, 0, 877, 154, 031, 1, 031, 1,         498,           0
        498, 0, 1, 573, 901, 475, 1, 475, 1,         499,           0
        499, 1, 0, 937, 145, 792, 0, 792, 0,         500,           0
        500, 0, 0, 252, 051, 303, 0, 303, 0,         501,           0
        501, 1, 0, 659, 214, 445, 0, 445, 0,         502,           0
        502, 1, 0, 779, 647, 132, 0, 132, 0,         503,           0
        503, 1, 0, 986, 011, 975, 0, 975, 0,         504,           0
        504, 0, 1, 475, 587, 063, 1, 063, 1,         505,           0
        505, 1, 1, 508, 418, 089, 0, 089, 0,         506,           0
        506, 0, 1, 519, 462, 982, 0, 982, 0,         507,           0
        507, 1, 0, 557, 793, 764, 1, 764, 1,         508,           0
        508, 1, 0, 886, 668, 218, 0, 218, 0,         509,           0
        509, 0, 1, 623, 662, 286, 1, 286, 1,         510,           0
        510, 0, 1, 160, 532, 693, 0, 693, 0,         511,           0
        511, 1, 1, 538, 867, 670, 1, 670, 1,         512,           0
        512, 1, 1, 063, 491, 571, 1, 571, 1,         513,           0
        513, 0, 1, 982, 699, 682, 1, 682, 1,         514,           0
        514, 1, 1, 754, 810, 943, 1, 943, 1,         515,           0
        515, 0, 0, 193, 076, 269, 0, 269, 0,         516,           0
        516, 1, 1, 136, 918, 217, 1, 217, 1,         517,           0
        517, 0, 1, 486, 626, 113, 1, 113, 1,         518,           0
        518, 1, 0, 331, 034, 297, 0, 297, 0,         519,           0
        519, 1, 0, 972, 873, 099, 0, 099, 0,         520,           0
        520, 0, 0, 137, 867, 004, 1, 004, 1,         521,           0
        521, 1, 0, 733, 763, 970, 1, 970, 1,         522,           0
        522, 1, 0, 211, 960, 251, 1, 251, 1,         523,           0
        523, 0, 0, 181, 640, 821, 0, 821, 0,         524,           0
        524, 0, 0, 574, 984, 558, 1, 558, 1,         525,           0
        525, 0, 0, 662, 948, 610, 1, 610, 1,         526,           0
        526, 0, 0, 008, 362, 370, 0, 370, 0,         527,           0
        527, 0, 1, 386, 221, 608, 0, 608, 0,         528,           0
        528, 0, 1, 463, 072, 536, 0, 536, 0,         529,           0
        529, 1, 0, 735, 645, 090, 0, 090, 0,         530,           0
        530, 0, 0, 629, 049, 678, 0, 678, 0,         531,           0
        531, 1, 1, 724, 597, 126, 0, 126, 0,         532,           0
        532, 1, 0, 495, 261, 234, 0, 234, 0,         533,           0
        533, 1, 1, 833, 987, 845, 1, 845, 1,         534,           0
        534, 0, 0, 162, 982, 144, 1, 144, 1,         535,           0
        535, 0, 1, 186, 512, 699, 0, 699, 0,         536,           0
        536, 1, 1, 617, 987, 629, 1, 629, 1,         537,           0
        537, 1, 1, 740, 490, 249, 0, 249, 0,         538,           0
        538, 1, 1, 902, 637, 264, 0, 264, 0,         539,           0
        539, 0, 1, 694, 662, 357, 1, 357, 1,         540,           0
        540, 1, 1, 745, 109, 635, 0, 635, 0,         541,           0
        541, 1, 0, 551, 526, 025, 0, 025, 0,         542,           0
        542, 1, 0, 482, 586, 896, 1, 896, 1,         543,           0
        543, 1, 1, 481, 562, 918, 1, 918, 1,         544,           0
        544, 0, 0, 800, 786, 586, 1, 586, 1,         545,           0
        545, 0, 1, 680, 904, 585, 1, 585, 1,         546,           0
        546, 1, 1, 558, 993, 564, 1, 564, 1,         547,           0
        547, 0, 0, 255, 036, 291, 0, 291, 0,         548,           0
        548, 0, 1, 026, 028, 055, 0, 055, 0,         549,           0
        549, 0, 0, 621, 505, 126, 1, 126, 1,         550,           0
        550, 1, 0, 508, 551, 957, 1, 957, 1,         551,           0
        551, 0, 1, 738, 571, 310, 1, 310, 1,         552,           0
        552, 0, 1, 503, 151, 655, 0, 655, 0,         553,           0
        553, 0, 0, 320, 985, 305, 1, 305, 1,         554,           0
        554, 0, 0, 898, 755, 653, 1, 653, 1,         555,           0
        555, 1, 0, 148, 725, 423, 1, 423, 1,         556,           0
        556, 0, 1, 651, 724, 376, 1, 376, 1,         557,           0
        557, 1, 0, 391, 308, 083, 0, 083, 0,         558,           0
        558, 1, 1, 352, 115, 236, 0, 236, 0,         559,           0
        559, 0, 1, 233, 068, 302, 0, 302, 0,         560,           0
        560, 1, 0, 987, 129, 858, 0, 858, 0,         561,           0
        561, 1, 1, 867, 131, 735, 0, 735, 0,         562,           0
        562, 0, 0, 269, 815, 084, 1, 084, 1,         563,           0
        563, 0, 1, 762, 131, 894, 0, 894, 0,         564,           0
        564, 0, 1, 845, 012, 858, 0, 858, 0,         565,           0
        565, 0, 0, 637, 580, 217, 1, 217, 1,         566,           0
        566, 0, 0, 176, 483, 659, 0, 659, 0,         567,           0
        567, 1, 0, 589, 488, 101, 0, 101, 0,         568,           0
        568, 1, 1, 346, 795, 550, 1, 550, 1,         569,           0
        569, 1, 0, 037, 513, 524, 1, 524, 1,         570,           0
        570, 0, 0, 001, 364, 365, 0, 365, 0,         571,           0
        571, 0, 1, 403, 325, 729, 0, 729, 0,         572,           0
        572, 1, 0, 620, 109, 511, 0, 511, 0,         573,           0
        573, 1, 0, 244, 132, 112, 0, 112, 0,         574,           0
        574, 0, 1, 523, 150, 674, 0, 674, 0,         575,           0
        575, 0, 1, 171, 747, 919, 0, 919, 0,         576,           0
        576, 1, 1, 118, 227, 890, 1, 890, 1,         577,           0
        577, 1, 1, 412, 072, 339, 0, 339, 0,         578,           0
        578, 0, 0, 604, 719, 323, 1, 323, 1,         579,           0
        579, 1, 1, 209, 040, 168, 0, 168, 0,         580,           0
        580, 1, 1, 032, 479, 552, 1, 552, 1,         581,           0
        581, 0, 1, 389, 392, 782, 0, 782, 0,         582,           0
        582, 0, 0, 514, 032, 546, 0, 546, 0,         583,           0
        583, 1, 0, 719, 326, 393, 0, 393, 0,         584,           0
        584, 1, 1, 390, 171, 218, 0, 218, 0,         585,           0
        585, 0, 1, 165, 324, 490, 0, 490, 0,         586,           0
        586, 1, 1, 585, 656, 928, 1, 928, 1,         587,           0
        587, 1, 1, 893, 230, 662, 0, 662, 0,         588,           0
        588, 1, 0, 355, 083, 272, 0, 272, 0,         589,           0
        589, 1, 0, 422, 632, 790, 1, 790, 1,         590,           0
        590, 1, 0, 631, 143, 488, 0, 488, 0,         591,           0
        591, 0, 1, 135, 743, 879, 0, 879, 0,         592,           0
        592, 1, 1, 468, 244, 223, 0, 223, 0,         593,           0
        593, 0, 1, 018, 724, 743, 0, 743, 0,         594,           0
        594, 0, 1, 356, 753, 110, 1, 110, 1,         595,           0
        595, 0, 0, 082, 579, 661, 0, 661, 0,         596,           0
        596, 1, 1, 517, 045, 471, 0, 471, 0,         597,           0
        597, 0, 1, 062, 481, 544, 0, 544, 0,         598,           0
        598, 1, 0, 189, 930, 259, 1, 259, 1,         599,           0
        599, 0, 1, 695, 692, 388, 1, 388, 1,         600,           0
        600, 1, 0, 133, 775, 358, 1, 358, 1,         601,           0
        601, 0, 1, 210, 591, 802, 0, 802, 0,         602,           0
        602, 1, 0, 452, 908, 544, 1, 544, 1,         603,           0
        603, 1, 1, 372, 890, 481, 1, 481, 1,         604,           0
        604, 1, 1, 414, 007, 406, 0, 406, 0,         605,           0
        605, 0, 0, 897, 508, 405, 1, 405, 1,         606,           0
        606, 0, 0, 248, 167, 415, 0, 415, 0,         607,           0
        607, 0, 1, 838, 341, 180, 1, 180, 1,         608,           0
        608, 1, 0, 474, 636, 838, 1, 838, 1,         609,           0
        609, 0, 0, 150, 487, 637, 0, 637, 0,         610,           0
        610, 0, 0, 066, 655, 721, 0, 721, 0,         611,           0
        611, 1, 0, 427, 227, 200, 0, 200, 0,         612,           0
        612, 0, 0, 607, 669, 276, 1, 276, 1,         613,           0
        613, 0, 0, 383, 615, 998, 0, 998, 0,         614,           0
        614, 0, 0, 122, 314, 436, 0, 436, 0,         615,           0
        615, 0, 1, 933, 618, 552, 1, 552, 1,         616,           0
        616, 1, 1, 155, 523, 631, 1, 631, 1,         617,           0
        617, 0, 0, 470, 160, 630, 0, 630, 0,         618,           0
        618, 0, 1, 902, 404, 307, 1, 307, 1,         619,           0
        619, 1, 1, 126, 562, 563, 1, 563, 1,         620,           0
        620, 1, 1, 772, 309, 462, 0, 462, 0,         621,           0
        621, 0, 0, 659, 098, 757, 0, 757, 0,         622,           0
        622, 0, 1, 371, 519, 891, 0, 891, 0,         623,           0
        623, 0, 0, 062, 941, 003, 1, 003, 1,         624,           0
        624, 0, 0, 362, 613, 975, 0, 975, 0,         625,           0
        625, 1, 1, 932, 697, 234, 0, 234, 0,         626,           0
        626, 0, 1, 350, 370, 721, 0, 721, 0,         627,           0
        627, 1, 1, 432, 461, 970, 1, 970, 1,         628,           0
        628, 1, 1, 141, 793, 347, 1, 347, 1,         629,           0
        629, 0, 0, 280, 176, 456, 0, 456, 0,         630,           0
        630, 1, 0, 535, 234, 301, 0, 301, 0,         631,           0
        631, 1, 0, 214, 929, 285, 1, 285, 1,         632,           0
        632, 0, 0, 511, 482, 993, 0, 993, 0,         633,           0
        633, 0, 1, 093, 940, 034, 1, 034, 1,         634,           0
        634, 1, 1, 939, 495, 443, 0, 443, 0,         635,           0
        635, 1, 0, 387, 950, 437, 1, 437, 1,         636,           0
        636, 1, 1, 155, 582, 572, 1, 572, 1,         637,           0
        637, 1, 0, 763, 622, 141, 0, 141, 0,         638,           0
        638, 1, 1, 948, 383, 564, 0, 564, 0,         639,           0
        639, 0, 1, 966, 414, 381, 1, 381, 1,         640,           0
        640, 0, 0, 337, 337, 674, 0, 674, 0,         641,           0
        641, 0, 0, 420, 913, 333, 1, 333, 1,         642,           0
        642, 0, 1, 198, 063, 262, 0, 262, 0,         643,           0
        643, 0, 0, 129, 815, 944, 0, 944, 0,         644,           0
        644, 0, 0, 139, 870, 009, 1, 009, 1,         645,           0
        645, 1, 1, 742, 005, 736, 0, 736, 0,         646,           0
        646, 1, 0, 937, 037, 900, 0, 900, 0,         647,           0
        647, 1, 0, 772, 526, 246, 0, 246, 0,         648,           0
        648, 1, 1, 025, 769, 255, 1, 255, 1,         649,           0
        649, 1, 0, 433, 784, 649, 1, 649, 1,         650,           0
        650, 0, 0, 855, 793, 648, 1, 648, 1,         651,           0
        651, 0, 1, 349, 805, 155, 1, 155, 1,         652,           0
        652, 1, 1, 613, 668, 944, 1, 944, 1,         653,           0
        653, 1, 0, 343, 388, 955, 1, 955, 1,         654,           0
        654, 1, 0, 054, 394, 660, 1, 660, 1,         655,           0
        655, 0, 0, 538, 946, 484, 1, 484, 1,         656,           0
        656, 1, 0, 894, 712, 182, 0, 182, 0,         657,           0
        657, 1, 0, 806, 905, 901, 1, 901, 1,         658,           0
        658, 0, 0, 622, 298, 920, 0, 920, 0,         659,           0
        659, 0, 1, 532, 447, 980, 0, 980, 0,         660,           0
        660, 0, 1, 937, 940, 878, 1, 878, 1,         661,           0
        661, 0, 1, 244, 370, 615, 0, 615, 0,         662,           0
        662, 1, 0, 924, 951, 973, 1, 973, 1,         663,           0
        663, 0, 1, 634, 273, 908, 0, 908, 0,         664,           0
        664, 0, 0, 526, 662, 188, 1, 188, 1,         665,           0
        665, 0, 0, 929, 320, 249, 1, 249, 1,         666,           0
        666, 0, 1, 118, 844, 963, 0, 963, 0,         667,           0
        667, 0, 0, 482, 425, 907, 0, 907, 0,         668,           0
        668, 0, 0, 092, 288, 380, 0, 380, 0,         669,           0
        669, 0, 0, 470, 416, 886, 0, 886, 0,         670,           0
        670, 1, 0, 221, 395, 826, 1, 826, 1,         671,           0
        671, 0, 1, 811, 839, 651, 1, 651, 1,         672,           0
        672, 1, 1, 517, 862, 654, 1, 654, 1,         673,           0
        673, 1, 1, 427, 688, 738, 1, 738, 1,         674,           0
        674, 0, 1, 382, 541, 924, 0, 924, 0,         675,           0
        675, 0, 1, 933, 055, 989, 0, 989, 0,         676,           0
        676, 1, 0, 187, 168, 019, 0, 019, 0,         677,           0
        677, 1, 0, 306, 748, 558, 1, 558, 1,         678,           0
        678, 1, 0, 107, 582, 525, 1, 525, 1,         679,           0
        679, 0, 1, 974, 757, 732, 1, 732, 1,         680,           0
        680, 0, 0, 032, 071, 103, 0, 103, 0,         681,           0
        681, 1, 1, 321, 763, 557, 1, 557, 1,         682,           0
        682, 1, 0, 870, 542, 328, 0, 328, 0,         683,           0
        683, 0, 0, 218, 510, 728, 0, 728, 0,         684,           0
        684, 1, 0, 706, 562, 144, 0, 144, 0,         685,           0
        685, 0, 1, 654, 753, 408, 1, 408, 1,         686,           0
        686, 1, 1, 999, 568, 430, 0, 430, 0,         687,           0
        687, 0, 0, 863, 443, 306, 1, 306, 1,         688,           0
        688, 1, 1, 479, 889, 589, 1, 589, 1,         689,           0
        689, 0, 0, 808, 252, 060, 1, 060, 1,         690,           0
        690, 0, 0, 022, 480, 502, 0, 502, 0,         691,           0
        691, 0, 0, 390, 656, 046, 1, 046, 1,         692,           0
        692, 1, 0, 155, 330, 825, 1, 825, 1,         693,           0
        693, 0, 0, 940, 641, 581, 1, 581, 1,         694,           0
        694, 0, 0, 174, 418, 592, 0, 592, 0,         695,           0
        695, 1, 0, 875, 661, 214, 0, 214, 0,         696,           0
        696, 0, 0, 099, 450, 549, 0, 549, 0,         697,           0
        697, 0, 1, 566, 987, 554, 1, 554, 1,         698,           0
        698, 1, 0, 029, 595, 434, 1, 434, 1,         699,           0
        699, 0, 0, 597, 376, 973, 0, 973, 0,         700,           0
        700, 0, 1, 313, 265, 579, 0, 579, 0,         701,           0
        701, 1, 0, 545, 990, 555, 1, 555, 1,         702,           0
        702, 0, 1, 961, 984, 946, 1, 946, 1,         703,           0
        703, 0, 1, 985, 491, 477, 1, 477, 1,         704,           0
        704, 1, 0, 605, 963, 642, 1, 642, 1,         705,           0
        705, 0, 1, 571, 550, 122, 1, 122, 1,         706,           0
        706, 0, 0, 620, 328, 948, 0, 948, 0,         707,           0
        707, 1, 0, 457, 899, 558, 1, 558, 1,         708,           0
        708, 0, 0, 541, 115, 656, 0, 656, 0,         709,           0
        709, 1, 0, 160, 827, 333, 1, 333, 1,         710,           0
        710, 0, 0, 338, 628, 966, 0, 966, 0,         711,           0
        711, 1, 0, 505, 409, 096, 0, 096, 0,         712,           0
        712, 0, 0, 465, 011, 476, 0, 476, 0,         713,           0
        713, 1, 1, 946, 645, 300, 0, 300, 0,         714,           0
        714, 0, 1, 547, 021, 569, 0, 569, 0,         715,           0
        715, 1, 0, 089, 523, 566, 1, 566, 1,         716,           0
        716, 1, 1, 107, 705, 401, 1, 401, 1,         717,           0
        717, 1, 1, 341, 791, 549, 1, 549, 1,         718,           0
        718, 0, 0, 477, 518, 995, 0, 995, 0,         719,           0
        719, 0, 0, 973, 401, 374, 1, 374, 1,         720,           0
        720, 0, 0, 177, 604, 781, 0, 781, 0,         721,           0
        721, 1, 1, 935, 904, 030, 0, 030, 0,         722,           0
        722, 0, 1, 738, 728, 467, 1, 467, 1,         723,           0
        723, 1, 0, 330, 090, 240, 0, 240, 0,         724,           0
        724, 0, 0, 084, 989, 073, 1, 073, 1,         725,           0
        725, 1, 0, 703, 002, 701, 0, 701, 0,         726,           0
        726, 0, 0, 390, 904, 294, 1, 294, 1,         727,           0
        727, 0, 0, 054, 950, 004, 1, 004, 1,         728,           0
        728, 1, 1, 033, 710, 322, 1, 322, 1,         729,           0
        729, 1, 1, 035, 349, 685, 1, 685, 1,         730,           0
        730, 0, 0, 644, 572, 216, 1, 216, 1,         731,           0
        731, 1, 1, 104, 579, 524, 1, 524, 1,         732,           0
        732, 0, 0, 994, 385, 379, 1, 379, 1,         733,           0
        733, 1, 0, 292, 544, 748, 1, 748, 1,         734,           0
        734, 0, 0, 886, 590, 476, 1, 476, 1,         735,           0
        735, 0, 1, 958, 796, 755, 1, 755, 1,         736,           0
        736, 0, 1, 364, 530, 895, 0, 895, 0,         737,           0
        737, 1, 1, 401, 875, 525, 1, 525, 1,         738,           0
        738, 0, 0, 618, 282, 900, 0, 900, 0,         739,           0
        739, 1, 0, 693, 361, 332, 0, 332, 0,         740,           0
        740, 1, 1, 517, 346, 170, 0, 170, 0,         741,           0
        741, 1, 1, 160, 050, 109, 0, 109, 0,         742,           0
        742, 0, 0, 930, 907, 837, 1, 837, 1,         743,           0
        743, 0, 0, 349, 719, 068, 1, 068, 1,         744,           0
        744, 0, 0, 285, 689, 974, 0, 974, 0,         745,           0
        745, 1, 0, 141, 844, 297, 1, 297, 1,         746,           0
        746, 1, 1, 180, 070, 109, 0, 109, 0,         747,           0
        747, 1, 0, 720, 406, 314, 0, 314, 0,         748,           0
        748, 0, 0, 600, 483, 083, 1, 083, 1,         749,           0
        749, 1, 1, 099, 601, 497, 1, 497, 1,         750,           0
        750, 0, 1, 976, 725, 702, 1, 702, 1,         751,           0
        751, 0, 0, 975, 858, 833, 1, 833, 1,         752,           0
        752, 1, 1, 029, 131, 897, 1, 897, 1,         753,           0
        753, 1, 1, 471, 481, 989, 1, 989, 1,         754,           0
        754, 0, 1, 150, 426, 577, 0, 577, 0,         755,           0
        755, 1, 1, 806, 270, 535, 0, 535, 0,         756,           0
        756, 1, 0, 030, 431, 599, 1, 599, 1,         757,           0
        757, 1, 1, 363, 987, 375, 1, 375, 1,         758,           0
        758, 1, 0, 123, 623, 500, 1, 500, 1,         759,           0
        759, 1, 1, 412, 872, 539, 1, 539, 1,         760,           0
        760, 1, 1, 606, 766, 839, 1, 839, 1,         761,           0
        761, 1, 0, 018, 123, 895, 1, 895, 1,         762,           0
        762, 1, 1, 577, 420, 156, 0, 156, 0,         763,           0
        763, 1, 1, 209, 620, 588, 1, 588, 1,         764,           0
        764, 0, 0, 423, 626, 049, 1, 049, 1,         765,           0
        765, 0, 0, 106, 552, 658, 0, 658, 0,         766,           0
        766, 1, 1, 521, 560, 960, 1, 960, 1,         767,           0
        767, 0, 0, 254, 913, 167, 1, 167, 1,         768,           0
        768, 1, 1, 060, 017, 042, 0, 042, 0,         769,           0
        769, 1, 0, 207, 504, 703, 1, 703, 1,         770,           0
        770, 0, 1, 513, 818, 332, 1, 332, 1,         771,           0
        771, 0, 1, 031, 369, 401, 0, 401, 0,         772,           0
        772, 0, 1, 243, 792, 036, 1, 036, 1,         773,           0
        773, 1, 0, 585, 773, 812, 1, 812, 1,         774,           0
        774, 0, 0, 188, 260, 448, 0, 448, 0,         775,           0
        775, 1, 1, 286, 190, 095, 0, 095, 0,         776,           0
        776, 1, 0, 136, 223, 913, 1, 913, 1,         777,           0
        777, 0, 1, 670, 618, 289, 1, 289, 1,         778,           0
        778, 0, 0, 245, 446, 691, 0, 691, 0,         779,           0
        779, 0, 1, 257, 971, 229, 1, 229, 1,         780,           0
        780, 0, 0, 903, 983, 886, 1, 886, 1,         781,           0
        781, 0, 1, 988, 287, 276, 1, 276, 1,         782,           0
        782, 1, 0, 052, 527, 525, 1, 525, 1,         783,           0
        783, 0, 0, 844, 777, 621, 1, 621, 1,         784,           0
        784, 1, 1, 708, 636, 071, 0, 071, 0,         785,           0
        785, 0, 1, 467, 951, 419, 1, 419, 1,         786,           0
        786, 1, 0, 428, 401, 027, 0, 027, 0,         787,           0
        787, 0, 0, 286, 488, 774, 0, 774, 0,         788,           0
        788, 0, 0, 042, 282, 324, 0, 324, 0,         789,           0
        789, 1, 0, 723, 894, 829, 1, 829, 1,         790,           0
        790, 1, 0, 955, 648, 307, 0, 307, 0,         791,           0
        791, 0, 0, 621, 604, 225, 1, 225, 1,         792,           0
        792, 1, 1, 213, 768, 444, 1, 444, 1,         793,           0
        793, 1, 0, 463, 148, 315, 0, 315, 0,         794,           0
        794, 0, 1, 392, 099, 492, 0, 492, 0,         795,           0
        795, 1, 0, 012, 595, 417, 1, 417, 1,         796,           0
        796, 0, 1, 909, 108, 018, 1, 018, 1,         797,           0
        797, 1, 0, 879, 618, 261, 0, 261, 0,         798,           0
        798, 0, 0, 853, 564, 417, 1, 417, 1,         799,           0
        799, 0, 0, 765, 039, 804, 0, 804, 0,         800,           0
        800, 1, 0, 577, 126, 451, 0, 451, 0,         801,           0
        801, 0, 0, 136, 276, 412, 0, 412, 0,         802,           0
        802, 0, 1, 423, 558, 982, 0, 982, 0,         803,           0
        803, 1, 0, 703, 980, 723, 1, 723, 1,         804,           0
        804, 1, 1, 699, 547, 151, 0, 151, 0,         805,           0
        805, 0, 1, 445, 912, 358, 1, 358, 1,         806,           0
        806, 1, 0, 733, 491, 242, 0, 242, 0,         807,           0
        807, 1, 0, 062, 802, 260, 1, 260, 1,         808,           0
        808, 1, 1, 901, 377, 523, 0, 523, 0,         809,           0
        809, 0, 1, 471, 871, 343, 1, 343, 1,         810,           0
        810, 1, 0, 277, 197, 080, 0, 080, 0,         811,           0
        811, 0, 1, 448, 053, 502, 0, 502, 0,         812,           0
        812, 0, 1, 685, 646, 332, 1, 332, 1,         813,           0
        813, 1, 1, 575, 375, 199, 0, 199, 0,         814,           0
        814, 1, 1, 171, 137, 033, 0, 033, 0,         815,           0
        815, 0, 0, 730, 797, 527, 1, 527, 1,         816,           0
        816, 0, 0, 380, 121, 501, 0, 501, 0,         817,           0
        817, 1, 0, 987, 400, 587, 0, 587, 0,         818,           0
        818, 1, 0, 870, 917, 953, 1, 953, 1,         819,           0
        819, 0, 0, 784, 626, 410, 1, 410, 1,         820,           0
        820, 0, 1, 194, 218, 413, 0, 413, 0,         821,           0
        821, 1, 1, 722, 417, 304, 0, 304, 0,         822,           0
        822, 0, 0, 164, 364, 528, 0, 528, 0,         823,           0
        823, 0, 1, 061, 773, 835, 0, 835, 0,         824,           0
        824, 0, 1, 631, 114, 746, 0, 746, 0,         825,           0
        825, 0, 1, 161, 968, 130, 1, 130, 1,         826,           0
        826, 1, 0, 882, 974, 908, 1, 908, 1,         827,           0
        827, 0, 0, 101, 255, 356, 0, 356, 0,         828,           0
        828, 0, 0, 428, 863, 291, 1, 291, 1,         829,           0
        829, 0, 1, 222, 642, 865, 0, 865, 0,         830,           0
        830, 0, 1, 554, 175, 730, 0, 730, 0,         831,           0
        831, 0, 0, 659, 056, 715, 0, 715, 0,         832,           0
        832, 0, 1, 579, 987, 567, 1, 567, 1,         833,           0
        833, 1, 0, 454, 189, 265, 0, 265, 0,         834,           0
        834, 0, 0, 663, 798, 461, 1, 461, 1,         835,           0
        835, 1, 0, 381, 798, 583, 1, 583, 1,         836,           0
        836, 1, 1, 662, 493, 168, 0, 168, 0,         837,           0
        837, 0, 0, 401, 847, 248, 1, 248, 1,         838,           0
        838, 1, 0, 569, 731, 838, 1, 838, 1,         839,           0
        839, 0, 1, 263, 770, 034, 1, 034, 1,         840,           0
        840, 1, 1, 729, 739, 989, 1, 989, 1,         841,           0
        841, 0, 0, 481, 455, 936, 0, 936, 0,         842,           0
        842, 0, 1, 038, 572, 611, 0, 611, 0,         843,           0
        843, 1, 0, 171, 346, 825, 1, 825, 1,         844,           0
        844, 0, 0, 694, 264, 958, 0, 958, 0,         845,           0
        845, 0, 1, 682, 525, 208, 1, 208, 1,         846,           0
        846, 0, 0, 051, 303, 354, 0, 354, 0,         847,           0
        847, 0, 0, 663, 612, 275, 1, 275, 1,         848,           0
        848, 1, 1, 857, 740, 116, 0, 116, 0,         849,           0
        849, 1, 0, 811, 119, 692, 0, 692, 0,         850,           0
        850, 1, 1, 916, 955, 960, 1, 960, 1,         851,           0
        851, 1, 1, 394, 368, 025, 0, 025, 0,         852,           0
        852, 1, 1, 142, 867, 274, 1, 274, 1,         853,           0
        853, 1, 0, 100, 740, 360, 1, 360, 1,         854,           0
        854, 0, 0, 170, 435, 605, 0, 605, 0,         855,           0
        855, 1, 0, 424, 307, 117, 0, 117, 0,         856,           0
        856, 0, 0, 744, 474, 218, 1, 218, 1,         857,           0
        857, 0, 0, 314, 245, 559, 0, 559, 0,         858,           0
        858, 0, 0, 489, 525, 014, 1, 014, 1,         859,           0
        859, 0, 0, 809, 388, 197, 1, 197, 1,         860,           0
        860, 1, 1, 023, 201, 821, 1, 821, 1,         861,           0
        861, 1, 1, 718, 720, 997, 1, 997, 1,         862,           0
        862, 1, 0, 054, 169, 885, 1, 885, 1,         863,           0
        863, 0, 0, 966, 609, 575, 1, 575, 1,         864,           0
        864, 1, 0, 639, 270, 369, 0, 369, 0,         865,           0
        865, 1, 1, 000, 259, 740, 1, 740, 1,         866,           0
        866, 0, 0, 159, 611, 770, 0, 770, 0,         867,           0
        867, 0, 1, 805, 910, 716, 1, 716, 1,         868,           0
        868, 0, 0, 222, 484, 706, 0, 706, 0,         869,           0
        869, 0, 1, 474, 320, 795, 0, 795, 0,         870,           0
        870, 0, 0, 594, 614, 208, 1, 208, 1,         871,           0
        871, 1, 0, 433, 705, 728, 1, 728, 1,         872,           0
        872, 0, 1, 398, 323, 722, 0, 722, 0,         873,           0
        873, 1, 0, 560, 259, 301, 0, 301, 0,         874,           0
        874, 1, 1, 109, 805, 303, 1, 303, 1,         875,           0
        875, 1, 0, 111, 619, 492, 1, 492, 1,         876,           0
        876, 0, 1, 955, 383, 339, 1, 339, 1,         877,           0
        877, 1, 1, 936, 523, 412, 0, 412, 0,         878,           0
        878, 1, 1, 776, 576, 199, 0, 199, 0,         879,           0
        879, 1, 1, 751, 477, 273, 0, 273, 0,         880,           0
        880, 1, 0, 751, 235, 516, 0, 516, 0,         881,           0
        881, 0, 0, 880, 805, 685, 1, 685, 1,         882,           0
        882, 1, 1, 362, 211, 150, 0, 150, 0,         883,           0
        883, 1, 0, 374, 911, 463, 1, 463, 1,         884,           0
        884, 0, 1, 166, 375, 542, 0, 542, 0,         885,           0
        885, 0, 1, 566, 783, 350, 1, 350, 1,         886,           0
        886, 0, 0, 302, 590, 892, 0, 892, 0,         887,           0
        887, 0, 1, 086, 617, 704, 0, 704, 0,         888,           0
        888, 0, 0, 771, 886, 657, 1, 657, 1,         889,           0
        889, 0, 0, 377, 409, 786, 0, 786, 0,         890,           0
        890, 1, 1, 788, 494, 293, 0, 293, 0,         891,           0
        891, 1, 1, 216, 259, 956, 1, 956, 1,         892,           0
        892, 1, 1, 186, 584, 601, 1, 601, 1,         893,           0
        893, 1, 1, 643, 159, 483, 0, 483, 0,         894,           0
        894, 1, 1, 337, 913, 423, 1, 423, 1,         895,           0
        895, 0, 0, 410, 385, 795, 0, 795, 0,         896,           0
        896, 1, 0, 382, 137, 245, 0, 245, 0,         897,           0
        897, 0, 1, 382, 444, 827, 0, 827, 0,         898,           0
        898, 0, 1, 365, 249, 615, 0, 615, 0,         899,           0
        899, 0, 1, 231, 918, 150, 1, 150, 1,         900,           0
        900, 1, 0, 516, 410, 106, 0, 106, 0,         901,           0
        901, 0, 0, 412, 197, 609, 0, 609, 0,         902,           0
        902, 0, 0, 524, 373, 897, 0, 897, 0,         903,           0
        903, 0, 1, 618, 479, 098, 1, 098, 1,         904,           0
        904, 0, 1, 383, 945, 329, 1, 329, 1,         905,           0
        905, 1, 1, 933, 450, 482, 0, 482, 0,         906,           0
        906, 0, 0, 326, 498, 824, 0, 824, 0,         907,           0
        907, 0, 0, 868, 536, 404, 1, 404, 1,         908,           0
        908, 0, 1, 432, 029, 462, 0, 462, 0,         909,           0
        909, 1, 1, 811, 217, 593, 0, 593, 0,         910,           0
        910, 1, 0, 275, 110, 165, 0, 165, 0,         911,           0
        911, 1, 1, 658, 451, 206, 0, 206, 0,         912,           0
        912, 0, 0, 293, 954, 247, 1, 247, 1,         913,           0
        913, 1, 1, 340, 896, 443, 1, 443, 1,         914,           0
        914, 1, 0, 482, 275, 207, 0, 207, 0,         915,           0
        915, 0, 0, 852, 351, 203, 1, 203, 1,         916,           0
        916, 1, 1, 351, 784, 566, 1, 566, 1,         917,           0
        917, 0, 0, 208, 068, 276, 0, 276, 0,         918,           0
        918, 1, 0, 319, 079, 240, 0, 240, 0,         919,           0
        919, 1, 0, 289, 500, 789, 1, 789, 1,         920,           0
        920, 1, 0, 357, 448, 909, 1, 909, 1,         921,           0
        921, 1, 1, 030, 271, 758, 1, 758, 1,         922,           0
        922, 0, 1, 931, 048, 980, 0, 980, 0,         923,           0
        923, 1, 1, 145, 172, 972, 1, 972, 1,         924,           0
        924, 1, 0, 099, 006, 093, 0, 093, 0,         925,           0
        925, 0, 1, 100, 545, 646, 0, 646, 0,         926,           0
        926, 0, 0, 091, 750, 841, 0, 841, 0,         927,           0
        927, 0, 0, 735, 388, 123, 1, 123, 1,         928,           0
        928, 0, 1, 262, 640, 903, 0, 903, 0,         929,           0
        929, 1, 0, 692, 537, 155, 0, 155, 0,         930,           0
        930, 0, 1, 689, 765, 455, 1, 455, 1,         931,           0
        931, 1, 0, 653, 548, 105, 0, 105, 0,         932,           0
        932, 0, 0, 984, 689, 673, 1, 673, 1,         933,           0
        933, 0, 1, 878, 078, 957, 0, 957, 0,         934,           0
        934, 1, 0, 915, 245, 670, 0, 670, 0,         935,           0
        935, 1, 0, 491, 303, 188, 0, 188, 0,         936,           0
        936, 0, 0, 041, 839, 880, 0, 880, 0,         937,           0
        937, 1, 0, 710, 656, 054, 0, 054, 0,         938,           0
        938, 1, 0, 051, 526, 525, 1, 525, 1,         939,           0
        939, 0, 1, 919, 547, 467, 1, 467, 1,         940,           0
        940, 1, 0, 551, 506, 045, 0, 045, 0,         941,           0
        941, 0, 0, 504, 225, 729, 0, 729, 0,         942,           0
        942, 0, 1, 953, 368, 322, 1, 322, 1,         943,           0
        943, 1, 1, 568, 150, 417, 0, 417, 0,         944,           0
        944, 1, 1, 302, 261, 040, 0, 040, 0,         945,           0
        945, 0, 1, 994, 386, 381, 1, 381, 1,         946,           0
        946, 1, 0, 699, 126, 573, 0, 573, 0,         947,           0
        947, 1, 1, 442, 173, 268, 0, 268, 0,         948,           0
        948, 0, 0, 685, 537, 222, 1, 222, 1,         949,           0
        949, 0, 1, 449, 379, 829, 0, 829, 0,         950,           0
        950, 1, 0, 921, 199, 722, 0, 722, 0,         951,           0
        951, 0, 1, 737, 958, 696, 1, 696, 1,         952,           0
        952, 1, 0, 704, 278, 426, 0, 426, 0,         953,           0
        953, 1, 0, 421, 818, 603, 1, 603, 1,         954,           0
        954, 1, 0, 412, 541, 871, 1, 871, 1,         955,           0
        955, 0, 1, 722, 969, 692, 1, 692, 1,         956,           0
        956, 1, 1, 418, 308, 109, 0, 109, 0,         957,           0
        957, 1, 1, 637, 823, 813, 1, 813, 1,         958,           0
        958, 1, 1, 758, 128, 629, 0, 629, 0,         959,           0
        959, 0, 0, 423, 569, 992, 0, 992, 0,         960,           0
        960, 1, 0, 804, 889, 915, 1, 915, 1,         961,           0
        961, 1, 0, 431, 443, 988, 1, 988, 1,         962,           0
        962, 0, 0, 039, 325, 364, 0, 364, 0,         963,           0
        963, 1, 1, 918, 068, 849, 0, 849, 0,         964,           0
        964, 1, 0, 370, 317, 053, 0, 053, 0,         965,           0
        965, 1, 0, 870, 493, 377, 0, 377, 0,         966,           0
        966, 1, 0, 783, 522, 261, 0, 261, 0,         967,           0
        967, 0, 0, 235, 512, 747, 0, 747, 0,         968,           0
        968, 1, 0, 098, 217, 881, 1, 881, 1,         969,           0
        969, 0, 0, 846, 613, 459, 1, 459, 1,         970,           0
        970, 0, 1, 870, 543, 414, 1, 414, 1,         971,           0
        971, 0, 1, 198, 490, 689, 0, 689, 0,         972,           0
        972, 1, 1, 952, 708, 243, 0, 243, 0,         973,           0
        973, 1, 0, 650, 529, 121, 0, 121, 0,         974,           0
        974, 0, 0, 074, 933, 007, 1, 007, 1,         975,           0
        975, 1, 1, 857, 949, 907, 1, 907, 1,         976,           0
        976, 1, 0, 348, 204, 144, 0, 144, 0,         977,           0
        977, 0, 0, 454, 659, 113, 1, 113, 1,         978,           0
        978, 1, 1, 351, 100, 250, 0, 250, 0,         979,           0
        979, 1, 1, 982, 981, 000, 0, 000, 0,         980,           0
        980, 1, 0, 899, 589, 310, 0, 310, 0,         981,           0
        981, 0, 1, 429, 918, 348, 1, 348, 1,         982,           0
        982, 0, 0, 592, 298, 890, 0, 890, 0,         983,           0
        983, 1, 1, 536, 648, 887, 1, 887, 1,         984,           0
        984, 1, 1, 679, 996, 682, 1, 682, 1,         985,           0
        985, 1, 0, 829, 632, 197, 0, 197, 0,         986,           0
        986, 0, 0, 605, 578, 183, 1, 183, 1,         987,           0
        987, 0, 0, 277, 260, 537, 0, 537, 0,         988,           0
        988, 1, 0, 538, 505, 033, 0, 033, 0,         989,           0
        989, 0, 1, 781, 073, 855, 0, 855, 0,         990,           0
        990, 1, 0, 657, 396, 261, 0, 261, 0,         991,           0
        991, 0, 0, 771, 887, 658, 1, 658, 1,         992,           0
        992, 1, 1, 593, 552, 040, 0, 040, 0,         993,           0
        993, 0, 0, 501, 578, 079, 1, 079, 1,         994,           0
        994, 0, 0, 115, 479, 594, 0, 594, 0,         995,           0
        995, 0, 1, 564, 833, 398, 1, 398, 1,         996,           0
        996, 1, 0, 448, 704, 744, 1, 744, 1,         997,           0
        997, 1, 0, 751, 926, 825, 1, 825, 1,         998,           0
        998, 1, 0, 511, 427, 084, 0, 084, 0,         999,           0
        999, 1, 1, 618, 690, 927, 1, 927, 1,        1000,           0
